13:46:48 INFO  : Registering command handlers for SDK TCF services
13:46:49 INFO  : Launching XSCT server: xsct -n -interactive /home/sil/Documents/school/EOS/les1/opdr3/opdr3.sdk/temp_xsdb_launch_script.tcl
13:46:53 INFO  : XSCT server has started successfully.
13:46:54 INFO  : Successfully done setting XSCT server connection channel  
13:46:54 INFO  : Successfully done setting SDK workspace  
13:46:54 INFO  : Processing command line option -hwspec /home/sil/Documents/school/EOS/les1/opdr3/opdr3.sdk/design_1_wrapper.hdf.
13:48:59 INFO  : No changes in MSS file content so not generating sources.
13:49:59 INFO  : No changes in MSS file content so not generating sources.
13:51:29 INFO  : Refreshed build settings on project sseg_driver
14:23:59 INFO  : Connected to target on host '127.0.0.1' and port '3121'.
14:23:59 INFO  : 'targets -set -filter {jtag_cable_name =~ "Avnet MiniZed V1 1234-oj1A" && level==0} -index 1' command is executed.
14:24:00 INFO  : FPGA configured successfully with bitstream "/home/sil/Documents/school/EOS/les1/opdr3/opdr3.sdk/design_1_wrapper_hw_platform_0/design_1_wrapper.bit"
14:24:15 INFO  : 'targets -set -filter {jtag_cable_name =~ "Avnet MiniZed V1 1234-oj1A" && level==0} -index 1' command is executed.
14:24:15 INFO  : 'fpga -state' command is executed.
14:24:15 INFO  : Connected to target on host '127.0.0.1' and port '3121'.
14:24:15 INFO  : Jtag cable 'Avnet MiniZed V1 1234-oj1A' is selected.
14:24:15 INFO  : 'jtag frequency' command is executed.
14:24:15 INFO  : Sourcing of '/home/sil/Documents/school/EOS/les1/opdr3/opdr3.sdk/design_1_wrapper_hw_platform_0/ps7_init.tcl' is done.
14:24:15 INFO  : Context for 'APU' is selected.
14:24:15 INFO  : Hardware design information is loaded from '/home/sil/Documents/school/EOS/les1/opdr3/opdr3.sdk/design_1_wrapper_hw_platform_0/system.hdf'.
14:24:15 INFO  : 'configparams force-mem-access 1' command is executed.
14:24:15 INFO  : Context for 'APU' is selected.
14:24:15 INFO  : 'stop' command is executed.
14:24:15 INFO  : 'ps7_init' command is executed.
14:24:15 INFO  : 'ps7_post_config' command is executed.
14:24:15 INFO  : Context for processor 'ps7_cortexa9_0' is selected.
14:24:15 INFO  : Processor reset is completed for 'ps7_cortexa9_0'.
14:24:15 INFO  : Context for processor 'ps7_cortexa9_0' is selected.
14:24:15 INFO  : The application '/home/sil/Documents/school/EOS/les1/opdr3/opdr3.sdk/sseg_driver/Debug/sseg_driver.elf' is downloaded to processor 'ps7_cortexa9_0'.
14:24:15 INFO  : 'configparams force-mem-access 0' command is executed.
14:24:15 INFO  : ----------------XSDB Script----------------
connect -url tcp:127.0.0.1:3121
source /home/sil/Documents/school/EOS/les1/opdr3/opdr3.sdk/design_1_wrapper_hw_platform_0/ps7_init.tcl
targets -set -nocase -filter {name =~"APU*" && jtag_cable_name =~ "Avnet MiniZed V1 1234-oj1A"} -index 0
loadhw -hw /home/sil/Documents/school/EOS/les1/opdr3/opdr3.sdk/design_1_wrapper_hw_platform_0/system.hdf -mem-ranges [list {0x40000000 0xbfffffff}]
configparams force-mem-access 1
targets -set -nocase -filter {name =~"APU*" && jtag_cable_name =~ "Avnet MiniZed V1 1234-oj1A"} -index 0
stop
ps7_init
ps7_post_config
targets -set -nocase -filter {name =~ "ARM*#0" && jtag_cable_name =~ "Avnet MiniZed V1 1234-oj1A"} -index 0
rst -processor
targets -set -nocase -filter {name =~ "ARM*#0" && jtag_cable_name =~ "Avnet MiniZed V1 1234-oj1A"} -index 0
dow /home/sil/Documents/school/EOS/les1/opdr3/opdr3.sdk/sseg_driver/Debug/sseg_driver.elf
configparams force-mem-access 0
----------------End of Script----------------

14:24:15 INFO  : Memory regions updated for context APU
14:24:15 INFO  : Context for processor 'ps7_cortexa9_0' is selected.
14:24:15 INFO  : 'con' command is executed.
14:24:15 INFO  : ----------------XSDB Script (After Launch)----------------
targets -set -nocase -filter {name =~ "ARM*#0" && jtag_cable_name =~ "Avnet MiniZed V1 1234-oj1A"} -index 0
con
----------------End of Script----------------

14:24:15 INFO  : Launch script is exported to file '/home/sil/Documents/school/EOS/les1/opdr3/opdr3.sdk/.sdk/launch_scripts/xilinx_c-c++_application_(system_debugger)/system_debugger_using_debug_sseg_driver.elf_on_local.tcl'
14:26:51 INFO  : Connected to target on host '127.0.0.1' and port '3121'.
14:26:51 INFO  : 'targets -set -filter {jtag_cable_name =~ "Avnet MiniZed V1 1234-oj1A" && level==0} -index 1' command is executed.
14:26:53 INFO  : FPGA configured successfully with bitstream "/home/sil/Documents/school/EOS/les1/opdr3/opdr3.sdk/design_1_wrapper_hw_platform_0/design_1_wrapper.bit"
14:27:02 INFO  : Disconnected from the channel tcfchan#1.
14:27:03 INFO  : 'targets -set -filter {jtag_cable_name =~ "Avnet MiniZed V1 1234-oj1A" && level==0} -index 1' command is executed.
14:27:03 INFO  : 'fpga -state' command is executed.
14:27:03 INFO  : Connected to target on host '127.0.0.1' and port '3121'.
14:27:03 INFO  : Jtag cable 'Avnet MiniZed V1 1234-oj1A' is selected.
14:27:03 INFO  : 'jtag frequency' command is executed.
14:27:03 INFO  : Sourcing of '/home/sil/Documents/school/EOS/les1/opdr3/opdr3.sdk/design_1_wrapper_hw_platform_0/ps7_init.tcl' is done.
14:27:03 INFO  : Context for 'APU' is selected.
14:27:04 INFO  : Hardware design information is loaded from '/home/sil/Documents/school/EOS/les1/opdr3/opdr3.sdk/design_1_wrapper_hw_platform_0/system.hdf'.
14:27:04 INFO  : 'configparams force-mem-access 1' command is executed.
14:27:04 INFO  : Context for 'APU' is selected.
14:27:04 INFO  : 'stop' command is executed.
14:27:04 INFO  : 'ps7_init' command is executed.
14:27:04 INFO  : 'ps7_post_config' command is executed.
14:27:04 INFO  : Context for processor 'ps7_cortexa9_0' is selected.
14:27:04 INFO  : Processor reset is completed for 'ps7_cortexa9_0'.
14:27:04 INFO  : Context for processor 'ps7_cortexa9_0' is selected.
14:27:05 INFO  : The application '/home/sil/Documents/school/EOS/les1/opdr3/opdr3.sdk/sseg_driver/Debug/sseg_driver.elf' is downloaded to processor 'ps7_cortexa9_0'.
14:27:05 INFO  : 'configparams force-mem-access 0' command is executed.
14:27:05 INFO  : ----------------XSDB Script----------------
connect -url tcp:127.0.0.1:3121
source /home/sil/Documents/school/EOS/les1/opdr3/opdr3.sdk/design_1_wrapper_hw_platform_0/ps7_init.tcl
targets -set -nocase -filter {name =~"APU*" && jtag_cable_name =~ "Avnet MiniZed V1 1234-oj1A"} -index 0
loadhw -hw /home/sil/Documents/school/EOS/les1/opdr3/opdr3.sdk/design_1_wrapper_hw_platform_0/system.hdf -mem-ranges [list {0x40000000 0xbfffffff}]
configparams force-mem-access 1
targets -set -nocase -filter {name =~"APU*" && jtag_cable_name =~ "Avnet MiniZed V1 1234-oj1A"} -index 0
stop
ps7_init
ps7_post_config
targets -set -nocase -filter {name =~ "ARM*#0" && jtag_cable_name =~ "Avnet MiniZed V1 1234-oj1A"} -index 0
rst -processor
targets -set -nocase -filter {name =~ "ARM*#0" && jtag_cable_name =~ "Avnet MiniZed V1 1234-oj1A"} -index 0
dow /home/sil/Documents/school/EOS/les1/opdr3/opdr3.sdk/sseg_driver/Debug/sseg_driver.elf
configparams force-mem-access 0
----------------End of Script----------------

14:27:05 INFO  : Memory regions updated for context APU
14:27:05 INFO  : Context for processor 'ps7_cortexa9_0' is selected.
14:27:05 INFO  : 'con' command is executed.
14:27:05 INFO  : ----------------XSDB Script (After Launch)----------------
targets -set -nocase -filter {name =~ "ARM*#0" && jtag_cable_name =~ "Avnet MiniZed V1 1234-oj1A"} -index 0
con
----------------End of Script----------------

14:27:05 INFO  : Launch script is exported to file '/home/sil/Documents/school/EOS/les1/opdr3/opdr3.sdk/.sdk/launch_scripts/xilinx_c-c++_application_(system_debugger)/system_debugger_using_debug_sseg_driver.elf_on_local.tcl'
14:28:20 INFO  : Disconnected from the channel tcfchan#2.
14:28:21 INFO  : 'targets -set -filter {jtag_cable_name =~ "Avnet MiniZed V1 1234-oj1A" && level==0} -index 1' command is executed.
14:28:21 INFO  : 'fpga -state' command is executed.
14:28:21 INFO  : Connected to target on host '127.0.0.1' and port '3121'.
14:28:21 INFO  : Jtag cable 'Avnet MiniZed V1 1234-oj1A' is selected.
14:28:21 INFO  : 'jtag frequency' command is executed.
14:28:21 INFO  : Sourcing of '/home/sil/Documents/school/EOS/les1/opdr3/opdr3.sdk/design_1_wrapper_hw_platform_0/ps7_init.tcl' is done.
14:28:22 INFO  : Context for 'APU' is selected.
14:28:22 INFO  : Hardware design information is loaded from '/home/sil/Documents/school/EOS/les1/opdr3/opdr3.sdk/design_1_wrapper_hw_platform_0/system.hdf'.
14:28:22 INFO  : 'configparams force-mem-access 1' command is executed.
14:28:22 INFO  : Context for 'APU' is selected.
14:28:22 INFO  : 'stop' command is executed.
14:28:23 INFO  : 'ps7_init' command is executed.
14:28:23 INFO  : 'ps7_post_config' command is executed.
14:28:23 INFO  : Context for processor 'ps7_cortexa9_0' is selected.
14:28:23 INFO  : Processor reset is completed for 'ps7_cortexa9_0'.
14:28:23 INFO  : Context for processor 'ps7_cortexa9_0' is selected.
14:28:23 INFO  : The application '/home/sil/Documents/school/EOS/les1/opdr3/opdr3.sdk/sseg_driver/Debug/sseg_driver.elf' is downloaded to processor 'ps7_cortexa9_0'.
14:28:23 INFO  : 'configparams force-mem-access 0' command is executed.
14:28:23 INFO  : ----------------XSDB Script----------------
connect -url tcp:127.0.0.1:3121
source /home/sil/Documents/school/EOS/les1/opdr3/opdr3.sdk/design_1_wrapper_hw_platform_0/ps7_init.tcl
targets -set -nocase -filter {name =~"APU*" && jtag_cable_name =~ "Avnet MiniZed V1 1234-oj1A"} -index 0
loadhw -hw /home/sil/Documents/school/EOS/les1/opdr3/opdr3.sdk/design_1_wrapper_hw_platform_0/system.hdf -mem-ranges [list {0x40000000 0xbfffffff}]
configparams force-mem-access 1
targets -set -nocase -filter {name =~"APU*" && jtag_cable_name =~ "Avnet MiniZed V1 1234-oj1A"} -index 0
stop
ps7_init
ps7_post_config
targets -set -nocase -filter {name =~ "ARM*#0" && jtag_cable_name =~ "Avnet MiniZed V1 1234-oj1A"} -index 0
rst -processor
targets -set -nocase -filter {name =~ "ARM*#0" && jtag_cable_name =~ "Avnet MiniZed V1 1234-oj1A"} -index 0
dow /home/sil/Documents/school/EOS/les1/opdr3/opdr3.sdk/sseg_driver/Debug/sseg_driver.elf
configparams force-mem-access 0
----------------End of Script----------------

14:28:23 INFO  : Memory regions updated for context APU
14:28:23 INFO  : Context for processor 'ps7_cortexa9_0' is selected.
14:28:23 INFO  : 'con' command is executed.
14:28:23 INFO  : ----------------XSDB Script (After Launch)----------------
targets -set -nocase -filter {name =~ "ARM*#0" && jtag_cable_name =~ "Avnet MiniZed V1 1234-oj1A"} -index 0
con
----------------End of Script----------------

14:28:23 INFO  : Launch script is exported to file '/home/sil/Documents/school/EOS/les1/opdr3/opdr3.sdk/.sdk/launch_scripts/xilinx_c-c++_application_(system_debugger)/system_debugger_using_debug_sseg_driver.elf_on_local.tcl'
14:28:45 INFO  : Disconnected from the channel tcfchan#3.
14:28:46 INFO  : 'targets -set -filter {jtag_cable_name =~ "Avnet MiniZed V1 1234-oj1A" && level==0} -index 1' command is executed.
14:28:46 INFO  : 'fpga -state' command is executed.
14:28:46 INFO  : Connected to target on host '127.0.0.1' and port '3121'.
14:28:46 INFO  : Jtag cable 'Avnet MiniZed V1 1234-oj1A' is selected.
14:28:46 INFO  : 'jtag frequency' command is executed.
14:28:46 INFO  : Sourcing of '/home/sil/Documents/school/EOS/les1/opdr3/opdr3.sdk/design_1_wrapper_hw_platform_0/ps7_init.tcl' is done.
14:28:46 INFO  : Context for 'APU' is selected.
14:28:47 INFO  : Hardware design information is loaded from '/home/sil/Documents/school/EOS/les1/opdr3/opdr3.sdk/design_1_wrapper_hw_platform_0/system.hdf'.
14:28:47 INFO  : 'configparams force-mem-access 1' command is executed.
14:28:47 INFO  : Context for 'APU' is selected.
14:28:47 INFO  : 'stop' command is executed.
14:28:48 INFO  : 'ps7_init' command is executed.
14:28:48 INFO  : 'ps7_post_config' command is executed.
14:28:48 INFO  : Context for processor 'ps7_cortexa9_0' is selected.
14:28:48 INFO  : Processor reset is completed for 'ps7_cortexa9_0'.
14:28:48 INFO  : Context for processor 'ps7_cortexa9_0' is selected.
14:28:48 INFO  : The application '/home/sil/Documents/school/EOS/les1/opdr3/opdr3.sdk/sseg_driver/Debug/sseg_driver.elf' is downloaded to processor 'ps7_cortexa9_0'.
14:28:48 INFO  : 'configparams force-mem-access 0' command is executed.
14:28:48 INFO  : ----------------XSDB Script----------------
connect -url tcp:127.0.0.1:3121
source /home/sil/Documents/school/EOS/les1/opdr3/opdr3.sdk/design_1_wrapper_hw_platform_0/ps7_init.tcl
targets -set -nocase -filter {name =~"APU*" && jtag_cable_name =~ "Avnet MiniZed V1 1234-oj1A"} -index 0
loadhw -hw /home/sil/Documents/school/EOS/les1/opdr3/opdr3.sdk/design_1_wrapper_hw_platform_0/system.hdf -mem-ranges [list {0x40000000 0xbfffffff}]
configparams force-mem-access 1
targets -set -nocase -filter {name =~"APU*" && jtag_cable_name =~ "Avnet MiniZed V1 1234-oj1A"} -index 0
stop
ps7_init
ps7_post_config
targets -set -nocase -filter {name =~ "ARM*#0" && jtag_cable_name =~ "Avnet MiniZed V1 1234-oj1A"} -index 0
rst -processor
targets -set -nocase -filter {name =~ "ARM*#0" && jtag_cable_name =~ "Avnet MiniZed V1 1234-oj1A"} -index 0
dow /home/sil/Documents/school/EOS/les1/opdr3/opdr3.sdk/sseg_driver/Debug/sseg_driver.elf
configparams force-mem-access 0
----------------End of Script----------------

14:28:48 INFO  : Memory regions updated for context APU
14:28:48 INFO  : Context for processor 'ps7_cortexa9_0' is selected.
14:28:48 INFO  : 'con' command is executed.
14:28:48 INFO  : ----------------XSDB Script (After Launch)----------------
targets -set -nocase -filter {name =~ "ARM*#0" && jtag_cable_name =~ "Avnet MiniZed V1 1234-oj1A"} -index 0
con
----------------End of Script----------------

14:28:48 INFO  : Launch script is exported to file '/home/sil/Documents/school/EOS/les1/opdr3/opdr3.sdk/.sdk/launch_scripts/xilinx_c-c++_application_(system_debugger)/system_debugger_using_debug_sseg_driver.elf_on_local.tcl'
14:30:42 INFO  : Disconnected from the channel tcfchan#4.
14:30:43 INFO  : 'targets -set -filter {jtag_cable_name =~ "Avnet MiniZed V1 1234-oj1A" && level==0} -index 1' command is executed.
14:30:43 INFO  : 'fpga -state' command is executed.
14:30:43 INFO  : Connected to target on host '127.0.0.1' and port '3121'.
14:30:43 INFO  : Jtag cable 'Avnet MiniZed V1 1234-oj1A' is selected.
14:30:43 INFO  : 'jtag frequency' command is executed.
14:30:43 INFO  : Sourcing of '/home/sil/Documents/school/EOS/les1/opdr3/opdr3.sdk/design_1_wrapper_hw_platform_0/ps7_init.tcl' is done.
14:30:43 INFO  : Context for 'APU' is selected.
14:30:44 INFO  : Hardware design information is loaded from '/home/sil/Documents/school/EOS/les1/opdr3/opdr3.sdk/design_1_wrapper_hw_platform_0/system.hdf'.
14:30:44 INFO  : 'configparams force-mem-access 1' command is executed.
14:30:44 INFO  : Context for 'APU' is selected.
14:30:44 INFO  : 'stop' command is executed.
14:30:44 INFO  : 'ps7_init' command is executed.
14:30:44 INFO  : 'ps7_post_config' command is executed.
14:30:44 INFO  : Context for processor 'ps7_cortexa9_0' is selected.
14:30:44 INFO  : Processor reset is completed for 'ps7_cortexa9_0'.
14:30:44 INFO  : Context for processor 'ps7_cortexa9_0' is selected.
14:30:44 INFO  : The application '/home/sil/Documents/school/EOS/les1/opdr3/opdr3.sdk/sseg_driver/Debug/sseg_driver.elf' is downloaded to processor 'ps7_cortexa9_0'.
14:30:44 INFO  : 'configparams force-mem-access 0' command is executed.
14:30:44 INFO  : ----------------XSDB Script----------------
connect -url tcp:127.0.0.1:3121
source /home/sil/Documents/school/EOS/les1/opdr3/opdr3.sdk/design_1_wrapper_hw_platform_0/ps7_init.tcl
targets -set -nocase -filter {name =~"APU*" && jtag_cable_name =~ "Avnet MiniZed V1 1234-oj1A"} -index 0
loadhw -hw /home/sil/Documents/school/EOS/les1/opdr3/opdr3.sdk/design_1_wrapper_hw_platform_0/system.hdf -mem-ranges [list {0x40000000 0xbfffffff}]
configparams force-mem-access 1
targets -set -nocase -filter {name =~"APU*" && jtag_cable_name =~ "Avnet MiniZed V1 1234-oj1A"} -index 0
stop
ps7_init
ps7_post_config
targets -set -nocase -filter {name =~ "ARM*#0" && jtag_cable_name =~ "Avnet MiniZed V1 1234-oj1A"} -index 0
rst -processor
targets -set -nocase -filter {name =~ "ARM*#0" && jtag_cable_name =~ "Avnet MiniZed V1 1234-oj1A"} -index 0
dow /home/sil/Documents/school/EOS/les1/opdr3/opdr3.sdk/sseg_driver/Debug/sseg_driver.elf
configparams force-mem-access 0
----------------End of Script----------------

14:30:44 INFO  : Memory regions updated for context APU
14:30:44 INFO  : Context for processor 'ps7_cortexa9_0' is selected.
14:30:44 INFO  : 'con' command is executed.
14:30:44 INFO  : ----------------XSDB Script (After Launch)----------------
targets -set -nocase -filter {name =~ "ARM*#0" && jtag_cable_name =~ "Avnet MiniZed V1 1234-oj1A"} -index 0
con
----------------End of Script----------------

14:30:44 INFO  : Launch script is exported to file '/home/sil/Documents/school/EOS/les1/opdr3/opdr3.sdk/.sdk/launch_scripts/xilinx_c-c++_application_(system_debugger)/system_debugger_using_debug_sseg_driver.elf_on_local.tcl'
14:32:19 INFO  : Disconnected from the channel tcfchan#5.
14:32:20 INFO  : 'targets -set -filter {jtag_cable_name =~ "Avnet MiniZed V1 1234-oj1A" && level==0} -index 1' command is executed.
14:32:20 INFO  : 'fpga -state' command is executed.
14:32:20 INFO  : Connected to target on host '127.0.0.1' and port '3121'.
14:32:20 INFO  : Jtag cable 'Avnet MiniZed V1 1234-oj1A' is selected.
14:32:20 INFO  : 'jtag frequency' command is executed.
14:32:20 INFO  : Sourcing of '/home/sil/Documents/school/EOS/les1/opdr3/opdr3.sdk/design_1_wrapper_hw_platform_0/ps7_init.tcl' is done.
14:32:20 INFO  : Context for 'APU' is selected.
14:32:21 INFO  : Hardware design information is loaded from '/home/sil/Documents/school/EOS/les1/opdr3/opdr3.sdk/design_1_wrapper_hw_platform_0/system.hdf'.
14:32:21 INFO  : 'configparams force-mem-access 1' command is executed.
14:32:21 INFO  : Context for 'APU' is selected.
14:32:21 INFO  : 'stop' command is executed.
14:32:21 INFO  : 'ps7_init' command is executed.
14:32:21 INFO  : 'ps7_post_config' command is executed.
14:32:21 INFO  : Context for processor 'ps7_cortexa9_0' is selected.
14:32:21 INFO  : Processor reset is completed for 'ps7_cortexa9_0'.
14:32:21 INFO  : Context for processor 'ps7_cortexa9_0' is selected.
14:32:21 INFO  : The application '/home/sil/Documents/school/EOS/les1/opdr3/opdr3.sdk/sseg_driver/Debug/sseg_driver.elf' is downloaded to processor 'ps7_cortexa9_0'.
14:32:21 INFO  : 'configparams force-mem-access 0' command is executed.
14:32:21 INFO  : ----------------XSDB Script----------------
connect -url tcp:127.0.0.1:3121
source /home/sil/Documents/school/EOS/les1/opdr3/opdr3.sdk/design_1_wrapper_hw_platform_0/ps7_init.tcl
targets -set -nocase -filter {name =~"APU*" && jtag_cable_name =~ "Avnet MiniZed V1 1234-oj1A"} -index 0
loadhw -hw /home/sil/Documents/school/EOS/les1/opdr3/opdr3.sdk/design_1_wrapper_hw_platform_0/system.hdf -mem-ranges [list {0x40000000 0xbfffffff}]
configparams force-mem-access 1
targets -set -nocase -filter {name =~"APU*" && jtag_cable_name =~ "Avnet MiniZed V1 1234-oj1A"} -index 0
stop
ps7_init
ps7_post_config
targets -set -nocase -filter {name =~ "ARM*#0" && jtag_cable_name =~ "Avnet MiniZed V1 1234-oj1A"} -index 0
rst -processor
targets -set -nocase -filter {name =~ "ARM*#0" && jtag_cable_name =~ "Avnet MiniZed V1 1234-oj1A"} -index 0
dow /home/sil/Documents/school/EOS/les1/opdr3/opdr3.sdk/sseg_driver/Debug/sseg_driver.elf
configparams force-mem-access 0
----------------End of Script----------------

14:32:21 INFO  : Memory regions updated for context APU
14:32:21 INFO  : Context for processor 'ps7_cortexa9_0' is selected.
14:32:21 INFO  : 'con' command is executed.
14:32:21 INFO  : ----------------XSDB Script (After Launch)----------------
targets -set -nocase -filter {name =~ "ARM*#0" && jtag_cable_name =~ "Avnet MiniZed V1 1234-oj1A"} -index 0
con
----------------End of Script----------------

14:32:21 INFO  : Launch script is exported to file '/home/sil/Documents/school/EOS/les1/opdr3/opdr3.sdk/.sdk/launch_scripts/xilinx_c-c++_application_(system_debugger)/system_debugger_using_debug_sseg_driver.elf_on_local.tcl'
14:33:03 INFO  : Connected to target on host '127.0.0.1' and port '3121'.
14:33:03 INFO  : 'targets -set -filter {jtag_cable_name =~ "Avnet MiniZed V1 1234-oj1A" && level==0} -index 1' command is executed.
14:33:04 INFO  : FPGA configured successfully with bitstream "/home/sil/Documents/school/EOS/les1/opdr3/opdr3.sdk/design_1_wrapper_hw_platform_0/design_1_wrapper.bit"
14:33:13 INFO  : Disconnected from the channel tcfchan#6.
14:33:14 INFO  : 'targets -set -filter {jtag_cable_name =~ "Avnet MiniZed V1 1234-oj1A" && level==0} -index 1' command is executed.
14:33:14 INFO  : 'fpga -state' command is executed.
14:33:14 INFO  : Connected to target on host '127.0.0.1' and port '3121'.
14:33:14 INFO  : Jtag cable 'Avnet MiniZed V1 1234-oj1A' is selected.
14:33:14 INFO  : 'jtag frequency' command is executed.
14:33:14 INFO  : Sourcing of '/home/sil/Documents/school/EOS/les1/opdr3/opdr3.sdk/design_1_wrapper_hw_platform_0/ps7_init.tcl' is done.
14:33:14 INFO  : Context for 'APU' is selected.
14:33:15 INFO  : Hardware design information is loaded from '/home/sil/Documents/school/EOS/les1/opdr3/opdr3.sdk/design_1_wrapper_hw_platform_0/system.hdf'.
14:33:15 INFO  : 'configparams force-mem-access 1' command is executed.
14:33:15 INFO  : Context for 'APU' is selected.
14:33:15 INFO  : 'stop' command is executed.
14:33:15 INFO  : 'ps7_init' command is executed.
14:33:15 INFO  : 'ps7_post_config' command is executed.
14:33:15 INFO  : Context for processor 'ps7_cortexa9_0' is selected.
14:33:15 INFO  : Processor reset is completed for 'ps7_cortexa9_0'.
14:33:15 INFO  : Context for processor 'ps7_cortexa9_0' is selected.
14:33:15 INFO  : The application '/home/sil/Documents/school/EOS/les1/opdr3/opdr3.sdk/sseg_driver/Debug/sseg_driver.elf' is downloaded to processor 'ps7_cortexa9_0'.
14:33:15 INFO  : 'configparams force-mem-access 0' command is executed.
14:33:15 INFO  : ----------------XSDB Script----------------
connect -url tcp:127.0.0.1:3121
source /home/sil/Documents/school/EOS/les1/opdr3/opdr3.sdk/design_1_wrapper_hw_platform_0/ps7_init.tcl
targets -set -nocase -filter {name =~"APU*" && jtag_cable_name =~ "Avnet MiniZed V1 1234-oj1A"} -index 0
loadhw -hw /home/sil/Documents/school/EOS/les1/opdr3/opdr3.sdk/design_1_wrapper_hw_platform_0/system.hdf -mem-ranges [list {0x40000000 0xbfffffff}]
configparams force-mem-access 1
targets -set -nocase -filter {name =~"APU*" && jtag_cable_name =~ "Avnet MiniZed V1 1234-oj1A"} -index 0
stop
ps7_init
ps7_post_config
targets -set -nocase -filter {name =~ "ARM*#0" && jtag_cable_name =~ "Avnet MiniZed V1 1234-oj1A"} -index 0
rst -processor
targets -set -nocase -filter {name =~ "ARM*#0" && jtag_cable_name =~ "Avnet MiniZed V1 1234-oj1A"} -index 0
dow /home/sil/Documents/school/EOS/les1/opdr3/opdr3.sdk/sseg_driver/Debug/sseg_driver.elf
configparams force-mem-access 0
----------------End of Script----------------

14:33:15 INFO  : Memory regions updated for context APU
14:33:15 INFO  : Context for processor 'ps7_cortexa9_0' is selected.
14:33:15 INFO  : 'con' command is executed.
14:33:15 INFO  : ----------------XSDB Script (After Launch)----------------
targets -set -nocase -filter {name =~ "ARM*#0" && jtag_cable_name =~ "Avnet MiniZed V1 1234-oj1A"} -index 0
con
----------------End of Script----------------

14:33:15 INFO  : Launch script is exported to file '/home/sil/Documents/school/EOS/les1/opdr3/opdr3.sdk/.sdk/launch_scripts/xilinx_c-c++_application_(system_debugger)/system_debugger_using_debug_sseg_driver.elf_on_local.tcl'
14:34:18 INFO  : Disconnected from the channel tcfchan#7.
14:34:19 INFO  : 'targets -set -filter {jtag_cable_name =~ "Avnet MiniZed V1 1234-oj1A" && level==0} -index 1' command is executed.
14:34:19 INFO  : 'fpga -state' command is executed.
14:34:19 INFO  : Connected to target on host '127.0.0.1' and port '3121'.
14:34:20 INFO  : Jtag cable 'Avnet MiniZed V1 1234-oj1A' is selected.
14:34:20 INFO  : 'jtag frequency' command is executed.
14:34:20 INFO  : Sourcing of '/home/sil/Documents/school/EOS/les1/opdr3/opdr3.sdk/design_1_wrapper_hw_platform_0/ps7_init.tcl' is done.
14:34:20 INFO  : Context for 'APU' is selected.
14:34:20 INFO  : Hardware design information is loaded from '/home/sil/Documents/school/EOS/les1/opdr3/opdr3.sdk/design_1_wrapper_hw_platform_0/system.hdf'.
14:34:20 INFO  : 'configparams force-mem-access 1' command is executed.
14:34:20 INFO  : Context for 'APU' is selected.
14:34:20 INFO  : 'stop' command is executed.
14:34:21 INFO  : 'ps7_init' command is executed.
14:34:21 INFO  : 'ps7_post_config' command is executed.
14:34:21 INFO  : Context for processor 'ps7_cortexa9_0' is selected.
14:34:21 INFO  : Processor reset is completed for 'ps7_cortexa9_0'.
14:34:21 INFO  : Context for processor 'ps7_cortexa9_0' is selected.
14:34:21 INFO  : The application '/home/sil/Documents/school/EOS/les1/opdr3/opdr3.sdk/sseg_driver/Debug/sseg_driver.elf' is downloaded to processor 'ps7_cortexa9_0'.
14:34:21 INFO  : 'configparams force-mem-access 0' command is executed.
14:34:21 INFO  : ----------------XSDB Script----------------
connect -url tcp:127.0.0.1:3121
source /home/sil/Documents/school/EOS/les1/opdr3/opdr3.sdk/design_1_wrapper_hw_platform_0/ps7_init.tcl
targets -set -nocase -filter {name =~"APU*" && jtag_cable_name =~ "Avnet MiniZed V1 1234-oj1A"} -index 0
loadhw -hw /home/sil/Documents/school/EOS/les1/opdr3/opdr3.sdk/design_1_wrapper_hw_platform_0/system.hdf -mem-ranges [list {0x40000000 0xbfffffff}]
configparams force-mem-access 1
targets -set -nocase -filter {name =~"APU*" && jtag_cable_name =~ "Avnet MiniZed V1 1234-oj1A"} -index 0
stop
ps7_init
ps7_post_config
targets -set -nocase -filter {name =~ "ARM*#0" && jtag_cable_name =~ "Avnet MiniZed V1 1234-oj1A"} -index 0
rst -processor
targets -set -nocase -filter {name =~ "ARM*#0" && jtag_cable_name =~ "Avnet MiniZed V1 1234-oj1A"} -index 0
dow /home/sil/Documents/school/EOS/les1/opdr3/opdr3.sdk/sseg_driver/Debug/sseg_driver.elf
configparams force-mem-access 0
----------------End of Script----------------

14:34:21 INFO  : Memory regions updated for context APU
14:34:21 INFO  : Context for processor 'ps7_cortexa9_0' is selected.
14:34:21 INFO  : 'con' command is executed.
14:34:21 INFO  : ----------------XSDB Script (After Launch)----------------
targets -set -nocase -filter {name =~ "ARM*#0" && jtag_cable_name =~ "Avnet MiniZed V1 1234-oj1A"} -index 0
con
----------------End of Script----------------

14:34:21 INFO  : Launch script is exported to file '/home/sil/Documents/school/EOS/les1/opdr3/opdr3.sdk/.sdk/launch_scripts/xilinx_c-c++_application_(system_debugger)/system_debugger_using_debug_sseg_driver.elf_on_local.tcl'
14:35:10 INFO  : Disconnected from the channel tcfchan#8.
14:35:11 INFO  : 'targets -set -filter {jtag_cable_name =~ "Avnet MiniZed V1 1234-oj1A" && level==0} -index 1' command is executed.
14:35:11 INFO  : 'fpga -state' command is executed.
14:35:11 INFO  : Connected to target on host '127.0.0.1' and port '3121'.
14:35:11 INFO  : Jtag cable 'Avnet MiniZed V1 1234-oj1A' is selected.
14:35:11 INFO  : 'jtag frequency' command is executed.
14:35:11 INFO  : Sourcing of '/home/sil/Documents/school/EOS/les1/opdr3/opdr3.sdk/design_1_wrapper_hw_platform_0/ps7_init.tcl' is done.
14:35:11 INFO  : Context for 'APU' is selected.
14:35:12 INFO  : Hardware design information is loaded from '/home/sil/Documents/school/EOS/les1/opdr3/opdr3.sdk/design_1_wrapper_hw_platform_0/system.hdf'.
14:35:12 INFO  : 'configparams force-mem-access 1' command is executed.
14:35:12 INFO  : Context for 'APU' is selected.
14:35:12 INFO  : 'stop' command is executed.
14:35:12 INFO  : 'ps7_init' command is executed.
14:35:12 INFO  : 'ps7_post_config' command is executed.
14:35:12 INFO  : Context for processor 'ps7_cortexa9_0' is selected.
14:35:12 INFO  : Processor reset is completed for 'ps7_cortexa9_0'.
14:35:12 INFO  : Context for processor 'ps7_cortexa9_0' is selected.
14:35:13 INFO  : The application '/home/sil/Documents/school/EOS/les1/opdr3/opdr3.sdk/sseg_driver/Debug/sseg_driver.elf' is downloaded to processor 'ps7_cortexa9_0'.
14:35:13 INFO  : 'configparams force-mem-access 0' command is executed.
14:35:13 INFO  : ----------------XSDB Script----------------
connect -url tcp:127.0.0.1:3121
source /home/sil/Documents/school/EOS/les1/opdr3/opdr3.sdk/design_1_wrapper_hw_platform_0/ps7_init.tcl
targets -set -nocase -filter {name =~"APU*" && jtag_cable_name =~ "Avnet MiniZed V1 1234-oj1A"} -index 0
loadhw -hw /home/sil/Documents/school/EOS/les1/opdr3/opdr3.sdk/design_1_wrapper_hw_platform_0/system.hdf -mem-ranges [list {0x40000000 0xbfffffff}]
configparams force-mem-access 1
targets -set -nocase -filter {name =~"APU*" && jtag_cable_name =~ "Avnet MiniZed V1 1234-oj1A"} -index 0
stop
ps7_init
ps7_post_config
targets -set -nocase -filter {name =~ "ARM*#0" && jtag_cable_name =~ "Avnet MiniZed V1 1234-oj1A"} -index 0
rst -processor
targets -set -nocase -filter {name =~ "ARM*#0" && jtag_cable_name =~ "Avnet MiniZed V1 1234-oj1A"} -index 0
dow /home/sil/Documents/school/EOS/les1/opdr3/opdr3.sdk/sseg_driver/Debug/sseg_driver.elf
configparams force-mem-access 0
----------------End of Script----------------

14:35:13 INFO  : Memory regions updated for context APU
14:35:13 INFO  : Context for processor 'ps7_cortexa9_0' is selected.
14:35:13 INFO  : 'con' command is executed.
14:35:13 INFO  : ----------------XSDB Script (After Launch)----------------
targets -set -nocase -filter {name =~ "ARM*#0" && jtag_cable_name =~ "Avnet MiniZed V1 1234-oj1A"} -index 0
con
----------------End of Script----------------

14:35:13 INFO  : Launch script is exported to file '/home/sil/Documents/school/EOS/les1/opdr3/opdr3.sdk/.sdk/launch_scripts/xilinx_c-c++_application_(system_debugger)/system_debugger_using_debug_sseg_driver.elf_on_local.tcl'
14:37:23 INFO  : Disconnected from the channel tcfchan#9.
14:37:24 INFO  : 'targets -set -filter {jtag_cable_name =~ "Avnet MiniZed V1 1234-oj1A" && level==0} -index 1' command is executed.
14:37:24 INFO  : 'fpga -state' command is executed.
14:37:24 INFO  : Connected to target on host '127.0.0.1' and port '3121'.
14:37:24 INFO  : Jtag cable 'Avnet MiniZed V1 1234-oj1A' is selected.
14:37:24 INFO  : 'jtag frequency' command is executed.
14:37:24 INFO  : Sourcing of '/home/sil/Documents/school/EOS/les1/opdr3/opdr3.sdk/design_1_wrapper_hw_platform_0/ps7_init.tcl' is done.
14:37:24 INFO  : Context for 'APU' is selected.
14:37:25 INFO  : Hardware design information is loaded from '/home/sil/Documents/school/EOS/les1/opdr3/opdr3.sdk/design_1_wrapper_hw_platform_0/system.hdf'.
14:37:25 INFO  : 'configparams force-mem-access 1' command is executed.
14:37:25 INFO  : Context for 'APU' is selected.
14:37:25 INFO  : 'stop' command is executed.
14:37:25 INFO  : 'ps7_init' command is executed.
14:37:25 INFO  : 'ps7_post_config' command is executed.
14:37:25 INFO  : Context for processor 'ps7_cortexa9_0' is selected.
14:37:25 INFO  : Processor reset is completed for 'ps7_cortexa9_0'.
14:37:25 INFO  : Context for processor 'ps7_cortexa9_0' is selected.
14:37:26 INFO  : The application '/home/sil/Documents/school/EOS/les1/opdr3/opdr3.sdk/sseg_driver/Debug/sseg_driver.elf' is downloaded to processor 'ps7_cortexa9_0'.
14:37:26 INFO  : 'configparams force-mem-access 0' command is executed.
14:37:26 INFO  : ----------------XSDB Script----------------
connect -url tcp:127.0.0.1:3121
source /home/sil/Documents/school/EOS/les1/opdr3/opdr3.sdk/design_1_wrapper_hw_platform_0/ps7_init.tcl
targets -set -nocase -filter {name =~"APU*" && jtag_cable_name =~ "Avnet MiniZed V1 1234-oj1A"} -index 0
loadhw -hw /home/sil/Documents/school/EOS/les1/opdr3/opdr3.sdk/design_1_wrapper_hw_platform_0/system.hdf -mem-ranges [list {0x40000000 0xbfffffff}]
configparams force-mem-access 1
targets -set -nocase -filter {name =~"APU*" && jtag_cable_name =~ "Avnet MiniZed V1 1234-oj1A"} -index 0
stop
ps7_init
ps7_post_config
targets -set -nocase -filter {name =~ "ARM*#0" && jtag_cable_name =~ "Avnet MiniZed V1 1234-oj1A"} -index 0
rst -processor
targets -set -nocase -filter {name =~ "ARM*#0" && jtag_cable_name =~ "Avnet MiniZed V1 1234-oj1A"} -index 0
dow /home/sil/Documents/school/EOS/les1/opdr3/opdr3.sdk/sseg_driver/Debug/sseg_driver.elf
configparams force-mem-access 0
----------------End of Script----------------

14:37:26 INFO  : Memory regions updated for context APU
14:37:26 INFO  : Context for processor 'ps7_cortexa9_0' is selected.
14:37:26 INFO  : 'con' command is executed.
14:37:26 INFO  : ----------------XSDB Script (After Launch)----------------
targets -set -nocase -filter {name =~ "ARM*#0" && jtag_cable_name =~ "Avnet MiniZed V1 1234-oj1A"} -index 0
con
----------------End of Script----------------

14:37:26 INFO  : Launch script is exported to file '/home/sil/Documents/school/EOS/les1/opdr3/opdr3.sdk/.sdk/launch_scripts/xilinx_c-c++_application_(system_debugger)/system_debugger_using_debug_sseg_driver.elf_on_local.tcl'
14:39:45 INFO  : Disconnected from the channel tcfchan#10.
14:39:46 INFO  : 'targets -set -filter {jtag_cable_name =~ "Avnet MiniZed V1 1234-oj1A" && level==0} -index 1' command is executed.
14:39:46 INFO  : 'fpga -state' command is executed.
14:39:46 INFO  : Connected to target on host '127.0.0.1' and port '3121'.
14:39:46 INFO  : Jtag cable 'Avnet MiniZed V1 1234-oj1A' is selected.
14:39:46 INFO  : 'jtag frequency' command is executed.
14:39:46 INFO  : Sourcing of '/home/sil/Documents/school/EOS/les1/opdr3/opdr3.sdk/design_1_wrapper_hw_platform_0/ps7_init.tcl' is done.
14:39:46 INFO  : Context for 'APU' is selected.
14:39:47 INFO  : Hardware design information is loaded from '/home/sil/Documents/school/EOS/les1/opdr3/opdr3.sdk/design_1_wrapper_hw_platform_0/system.hdf'.
14:39:47 INFO  : 'configparams force-mem-access 1' command is executed.
14:39:47 INFO  : Context for 'APU' is selected.
14:39:47 INFO  : 'stop' command is executed.
14:39:47 INFO  : 'ps7_init' command is executed.
14:39:47 INFO  : 'ps7_post_config' command is executed.
14:39:47 INFO  : Context for processor 'ps7_cortexa9_0' is selected.
14:39:47 INFO  : Processor reset is completed for 'ps7_cortexa9_0'.
14:39:47 INFO  : Context for processor 'ps7_cortexa9_0' is selected.
14:39:47 INFO  : The application '/home/sil/Documents/school/EOS/les1/opdr3/opdr3.sdk/sseg_driver/Debug/sseg_driver.elf' is downloaded to processor 'ps7_cortexa9_0'.
14:39:47 INFO  : 'configparams force-mem-access 0' command is executed.
14:39:47 INFO  : ----------------XSDB Script----------------
connect -url tcp:127.0.0.1:3121
source /home/sil/Documents/school/EOS/les1/opdr3/opdr3.sdk/design_1_wrapper_hw_platform_0/ps7_init.tcl
targets -set -nocase -filter {name =~"APU*" && jtag_cable_name =~ "Avnet MiniZed V1 1234-oj1A"} -index 0
loadhw -hw /home/sil/Documents/school/EOS/les1/opdr3/opdr3.sdk/design_1_wrapper_hw_platform_0/system.hdf -mem-ranges [list {0x40000000 0xbfffffff}]
configparams force-mem-access 1
targets -set -nocase -filter {name =~"APU*" && jtag_cable_name =~ "Avnet MiniZed V1 1234-oj1A"} -index 0
stop
ps7_init
ps7_post_config
targets -set -nocase -filter {name =~ "ARM*#0" && jtag_cable_name =~ "Avnet MiniZed V1 1234-oj1A"} -index 0
rst -processor
targets -set -nocase -filter {name =~ "ARM*#0" && jtag_cable_name =~ "Avnet MiniZed V1 1234-oj1A"} -index 0
dow /home/sil/Documents/school/EOS/les1/opdr3/opdr3.sdk/sseg_driver/Debug/sseg_driver.elf
configparams force-mem-access 0
----------------End of Script----------------

14:39:47 INFO  : Memory regions updated for context APU
14:39:47 INFO  : Context for processor 'ps7_cortexa9_0' is selected.
14:39:48 INFO  : 'con' command is executed.
14:39:48 INFO  : ----------------XSDB Script (After Launch)----------------
targets -set -nocase -filter {name =~ "ARM*#0" && jtag_cable_name =~ "Avnet MiniZed V1 1234-oj1A"} -index 0
con
----------------End of Script----------------

14:39:48 INFO  : Launch script is exported to file '/home/sil/Documents/school/EOS/les1/opdr3/opdr3.sdk/.sdk/launch_scripts/xilinx_c-c++_application_(system_debugger)/system_debugger_using_debug_sseg_driver.elf_on_local.tcl'
14:40:42 INFO  : Disconnected from the channel tcfchan#11.
14:40:43 INFO  : 'targets -set -filter {jtag_cable_name =~ "Avnet MiniZed V1 1234-oj1A" && level==0} -index 1' command is executed.
14:40:43 INFO  : 'fpga -state' command is executed.
14:40:43 INFO  : Connected to target on host '127.0.0.1' and port '3121'.
14:40:43 INFO  : Jtag cable 'Avnet MiniZed V1 1234-oj1A' is selected.
14:40:43 INFO  : 'jtag frequency' command is executed.
14:40:43 INFO  : Sourcing of '/home/sil/Documents/school/EOS/les1/opdr3/opdr3.sdk/design_1_wrapper_hw_platform_0/ps7_init.tcl' is done.
14:40:43 INFO  : Context for 'APU' is selected.
14:40:44 INFO  : Hardware design information is loaded from '/home/sil/Documents/school/EOS/les1/opdr3/opdr3.sdk/design_1_wrapper_hw_platform_0/system.hdf'.
14:40:44 INFO  : 'configparams force-mem-access 1' command is executed.
14:40:44 INFO  : Context for 'APU' is selected.
14:40:44 INFO  : 'stop' command is executed.
14:40:44 INFO  : 'ps7_init' command is executed.
14:40:44 INFO  : 'ps7_post_config' command is executed.
14:40:44 INFO  : Context for processor 'ps7_cortexa9_0' is selected.
14:40:44 INFO  : Processor reset is completed for 'ps7_cortexa9_0'.
14:40:44 INFO  : Context for processor 'ps7_cortexa9_0' is selected.
14:40:45 INFO  : The application '/home/sil/Documents/school/EOS/les1/opdr3/opdr3.sdk/sseg_driver/Debug/sseg_driver.elf' is downloaded to processor 'ps7_cortexa9_0'.
14:40:45 INFO  : 'configparams force-mem-access 0' command is executed.
14:40:45 INFO  : ----------------XSDB Script----------------
connect -url tcp:127.0.0.1:3121
source /home/sil/Documents/school/EOS/les1/opdr3/opdr3.sdk/design_1_wrapper_hw_platform_0/ps7_init.tcl
targets -set -nocase -filter {name =~"APU*" && jtag_cable_name =~ "Avnet MiniZed V1 1234-oj1A"} -index 0
loadhw -hw /home/sil/Documents/school/EOS/les1/opdr3/opdr3.sdk/design_1_wrapper_hw_platform_0/system.hdf -mem-ranges [list {0x40000000 0xbfffffff}]
configparams force-mem-access 1
targets -set -nocase -filter {name =~"APU*" && jtag_cable_name =~ "Avnet MiniZed V1 1234-oj1A"} -index 0
stop
ps7_init
ps7_post_config
targets -set -nocase -filter {name =~ "ARM*#0" && jtag_cable_name =~ "Avnet MiniZed V1 1234-oj1A"} -index 0
rst -processor
targets -set -nocase -filter {name =~ "ARM*#0" && jtag_cable_name =~ "Avnet MiniZed V1 1234-oj1A"} -index 0
dow /home/sil/Documents/school/EOS/les1/opdr3/opdr3.sdk/sseg_driver/Debug/sseg_driver.elf
configparams force-mem-access 0
----------------End of Script----------------

14:40:45 INFO  : Memory regions updated for context APU
14:40:45 INFO  : Context for processor 'ps7_cortexa9_0' is selected.
14:40:45 INFO  : 'con' command is executed.
14:40:45 INFO  : ----------------XSDB Script (After Launch)----------------
targets -set -nocase -filter {name =~ "ARM*#0" && jtag_cable_name =~ "Avnet MiniZed V1 1234-oj1A"} -index 0
con
----------------End of Script----------------

14:40:45 INFO  : Launch script is exported to file '/home/sil/Documents/school/EOS/les1/opdr3/opdr3.sdk/.sdk/launch_scripts/xilinx_c-c++_application_(system_debugger)/system_debugger_using_debug_sseg_driver.elf_on_local.tcl'
14:41:00 INFO  : Disconnected from the channel tcfchan#12.
14:41:01 INFO  : 'targets -set -filter {jtag_cable_name =~ "Avnet MiniZed V1 1234-oj1A" && level==0} -index 1' command is executed.
14:41:01 INFO  : 'fpga -state' command is executed.
14:41:01 INFO  : Connected to target on host '127.0.0.1' and port '3121'.
14:41:01 INFO  : Jtag cable 'Avnet MiniZed V1 1234-oj1A' is selected.
14:41:01 INFO  : 'jtag frequency' command is executed.
14:41:01 INFO  : Sourcing of '/home/sil/Documents/school/EOS/les1/opdr3/opdr3.sdk/design_1_wrapper_hw_platform_0/ps7_init.tcl' is done.
14:41:01 INFO  : Context for 'APU' is selected.
14:41:02 INFO  : Hardware design information is loaded from '/home/sil/Documents/school/EOS/les1/opdr3/opdr3.sdk/design_1_wrapper_hw_platform_0/system.hdf'.
14:41:02 INFO  : 'configparams force-mem-access 1' command is executed.
14:41:02 INFO  : Context for 'APU' is selected.
14:41:02 INFO  : 'stop' command is executed.
14:41:02 INFO  : 'ps7_init' command is executed.
14:41:02 INFO  : 'ps7_post_config' command is executed.
14:41:02 INFO  : Context for processor 'ps7_cortexa9_0' is selected.
14:41:02 INFO  : Processor reset is completed for 'ps7_cortexa9_0'.
14:41:02 INFO  : Context for processor 'ps7_cortexa9_0' is selected.
14:41:02 INFO  : The application '/home/sil/Documents/school/EOS/les1/opdr3/opdr3.sdk/sseg_driver/Debug/sseg_driver.elf' is downloaded to processor 'ps7_cortexa9_0'.
14:41:02 INFO  : 'configparams force-mem-access 0' command is executed.
14:41:02 INFO  : ----------------XSDB Script----------------
connect -url tcp:127.0.0.1:3121
source /home/sil/Documents/school/EOS/les1/opdr3/opdr3.sdk/design_1_wrapper_hw_platform_0/ps7_init.tcl
targets -set -nocase -filter {name =~"APU*" && jtag_cable_name =~ "Avnet MiniZed V1 1234-oj1A"} -index 0
loadhw -hw /home/sil/Documents/school/EOS/les1/opdr3/opdr3.sdk/design_1_wrapper_hw_platform_0/system.hdf -mem-ranges [list {0x40000000 0xbfffffff}]
configparams force-mem-access 1
targets -set -nocase -filter {name =~"APU*" && jtag_cable_name =~ "Avnet MiniZed V1 1234-oj1A"} -index 0
stop
ps7_init
ps7_post_config
targets -set -nocase -filter {name =~ "ARM*#0" && jtag_cable_name =~ "Avnet MiniZed V1 1234-oj1A"} -index 0
rst -processor
targets -set -nocase -filter {name =~ "ARM*#0" && jtag_cable_name =~ "Avnet MiniZed V1 1234-oj1A"} -index 0
dow /home/sil/Documents/school/EOS/les1/opdr3/opdr3.sdk/sseg_driver/Debug/sseg_driver.elf
configparams force-mem-access 0
----------------End of Script----------------

14:41:02 INFO  : Memory regions updated for context APU
14:41:02 INFO  : Context for processor 'ps7_cortexa9_0' is selected.
14:41:02 INFO  : 'con' command is executed.
14:41:02 INFO  : ----------------XSDB Script (After Launch)----------------
targets -set -nocase -filter {name =~ "ARM*#0" && jtag_cable_name =~ "Avnet MiniZed V1 1234-oj1A"} -index 0
con
----------------End of Script----------------

14:41:02 INFO  : Launch script is exported to file '/home/sil/Documents/school/EOS/les1/opdr3/opdr3.sdk/.sdk/launch_scripts/xilinx_c-c++_application_(system_debugger)/system_debugger_using_debug_sseg_driver.elf_on_local.tcl'
14:42:11 INFO  : Disconnected from the channel tcfchan#13.
